Comparing competing Machine Learning models in classifying Spotify songs
…
# check the performance with collect_metrics
fit_knn_cv %>% collect_metrics()

# A tibble: 36 × 7
   neighbors .metric     .estimator   mean     n  std_err .config              
       <dbl> <chr>       <chr>       <dbl> <int>    <dbl> <chr>                
 1         1 accuracy    binary     0.965      5 0.00170  Preprocessor1_Model01
 2         1 brier_class binary     0.0351     5 0.00170  Preprocessor1_Model01
 3         1 roc_auc     binary     0.965      5 0.00309  Preprocessor1_Model01
 4         5 accuracy    binary     0.968      5 0.00176  Preprocessor1_Model02
 5         5 brier_class binary     0.0258     5 0.00118  Preprocessor1_Model02
 6         5 roc_auc     binary     0.989      5 0.00111  Preprocessor1_Model02
 7        10 accuracy    binary     0.968      5 0.000903 Preprocessor1_Model03
 8        10 brier_class binary     0.0247     5 0.000804 Preprocessor1_Model03
 9        10 roc_auc     binary     0.993      5 0.000952 Preprocessor1_Model03
10        20 accuracy    binary     0.967      5 0.00105  Preprocessor1_Model04
# ℹ 26 more rows
…
Use the workflow to finalize the model and also fit on the training set, and predicting on the test set.

#finalize the model that is cross validate and hyperparameter is tuned
final_tree <- finalize_model(tree_spec_tune, select_best(tree_rs))

#similar functions here.
final_tree_fit <- fit(final_tree, genre~., data = genre_train)

#last_fit() fits on training data (like fit()), but then also evaluates on the test data.
final_tree_result <- last_fit(final_tree, genre~., genre_split)
final_tree_result$.predictions

[[1]]
# A tibble: 2,211 × 6
   .pred_dnb .pred_URap  .row .pred_class genre .config             
       <dbl>      <dbl> <int> <fct>       <fct> <chr>               
 1   0            1         2 URap        URap  Preprocessor1_Model1
 2   0            1         3 URap        URap  Preprocessor1_Model1
 3   0            1         4 URap        URap  Preprocessor1_Model1
 4   0.00157      0.998     6 URap        URap  Preprocessor1_Model1
 5   0            1         7 URap        URap  Preprocessor1_Model1
 6   0.00157      0.998     8 URap        URap  Preprocessor1_Model1
 7   0            1        14 URap        URap  Preprocessor1_Model1
 8   0.00157      0.998    16 URap        URap  Preprocessor1_Model1
 9   0.00157      0.998    17 URap        URap  Preprocessor1_Model1
10   0.00157      0.998    20 URap        URap  Preprocessor1_Model1
# ℹ 2,201 more rows
…
# create a workflow
rf_workflow <- workflow() %>%
         add_model(rf_model) %>%
         add_recipe(genre_recipe)

# use tune grid to tune the model
rf_tune <- tune_grid(
        rf_workflow,
        resamples = cv_folds,
        grid = 10)

# collect metrices
rf_tune %>% collect_metrics()

# A tibble: 30 × 8
    mtry trees .metric     .estimator    mean     n   std_err .config           
   <int> <int> <chr>       <chr>        <dbl> <int>     <dbl> <chr>             
 1    10  1748 accuracy    binary     0.990       5 0.00121   Preprocessor1_Mod…
 2    10  1748 brier_class binary     0.00755     5 0.000711  Preprocessor1_Mod…
 3    10  1748 roc_auc     binary     0.999       5 0.000150  Preprocessor1_Mod…
 4     7    69 accuracy    binary     0.993       5 0.00103   Preprocessor1_Mod…
 5     7    69 brier_class binary     0.00666     5 0.000590  Preprocessor1_Mod…
 6     7    69 roc_auc     binary     1.00        5 0.000167  Preprocessor1_Mod…
 7     5  1242 accuracy    binary     0.993       5 0.000942  Preprocessor1_Mod…
 8     5  1242 brier_class binary     0.00664     5 0.000575  Preprocessor1_Mod…
 9     5  1242 roc_auc     binary     1.00        5 0.0000860 Preprocessor1_Mod…
10     6   464 accuracy    binary     0.993       5 0.000840  Preprocessor1_Mod…
# ℹ 20 more rows
…
