Crop burning and Air quality in South Asia
…
total_agri_area <- total_agri_area %>%  select(-c(`Country Code`, `Indicator Code`)) %>%                    filter(`Country Name` %in% south_asian_countries)

##Pivot longer the data
transposed <- total_agri_area %>% pivot_longer(cols = "1960": "2022") %>% 
              na.omit() %>% 
              filter(name  >= 1990) %>% 
              rename("area_cultivable"= "value", "year"= "name", 'area' = 'Country Name') %>% 
  mutate(year = as.numeric(year))
transposed
## # A tibble: 224 × 3
##    area         year area_cultivable
##    <chr>       <dbl>           <dbl>
##  1 Afghanistan  1990          380400
##  2 Afghanistan  1991          380300
##  3 Afghanistan  1992          380300
##  4 Afghanistan  1993          379340
##  5 Afghanistan  1994          378130
##  6 Afghanistan  1995          377630
##  7 Afghanistan  1996          377570
##  8 Afghanistan  1997          377950
##  9 Afghanistan  1998          378680
## 10 Afghanistan  1999          377640
## # ℹ 214 more rows
…
